%YAML 1.1
%TAG !u! tag:unity3d.com,2011:
--- !u!114 &11400000
MonoBehaviour:
  m_ObjectHideFlags: 0
  m_PrefabParentObject: {fileID: 0}
  m_PrefabInternal: {fileID: 0}
  m_GameObject: {fileID: 0}
  m_Enabled: 1
  m_EditorHideFlags: 0
  m_Script: {fileID: 11500000, guid: af3db32a9f02fbe42a650ee196b0c420, type: 3}
  m_Name: GameMusicVariable
  m_EditorClassIdentifier: 
  clips:
  - {fileID: 11400000, guid: b3b16da57f8de1a468b6f9aca43bdace, type: 2}
  - {fileID: 11400000, guid: 87f6680a2d3a2c545acbd18d0b9a2b19, type: 2}
