%YAML 1.1
%TAG !u! tag:unity3d.com,2011:
--- !u!114 &11400000
MonoBehaviour:
  m_ObjectHideFlags: 0
  m_CorrespondingSourceObject: {fileID: 0}
  m_PrefabInternal: {fileID: 0}
  m_GameObject: {fileID: 0}
  m_Enabled: 1
  m_EditorHideFlags: 0
  m_Script: {fileID: 11500000, guid: 5ac0708b194340c42b46db907b637efd, type: 3}
  m_Name: PlayerMaxHp
  m_EditorClassIdentifier: 
  UseConstant: 1
  ConstantValue: 100
  Variable: {fileID: 11400000, guid: a25f7feb9f37a7e4b8fc0cc29a15facd, type: 2}
